06.08.2019,13:28:02,25.0,61.8
06.08.2019,13:29:03,24.9,61.6
06.08.2019,13:30:02,24.9,60.8
06.08.2019,13:31:02,24.9,61.5
06.08.2019,13:32:02,25.0,61.2
06.08.2019,13:33:02,24.9,61.1
06.08.2019,13:34:02,24.9,61.4
06.08.2019,13:35:02,24.9,61.3
06.08.2019,13:36:01,24.9,61.3
06.08.2019,13:37:02,24.9,61.3
06.08.2019,13:38:02,24.9,61.0
06.08.2019,13:39:02,24.9,61.8
06.08.2019,13:40:02,24.9,61.3

